GA6_R
…
#1. Create a character vector fav_food with five names of your favorite food. Replace third element of the vector with a bird name and extract first and fifth element.

fav_food <- c("Burger", "arepa", "tacos", "shawarma", "Tamal_huilense")
fav_food[3] <- "Humming-bird"
fav_food[c(1,5)]

[1] "Burger"         "Tamal_huilense"

#2. Load the tidyverse package. We have seen in the class that when we load the tidyverse package, we see many warnings. Use the code chunk option to hide the warning. Read your metadata.tsv file from the garrigos-data/meta directory and save it as object metadata. Write down the data structure of the metadata, number of variables, and rows.

library(tidyverse)
metadata <- read_tsv(file = "/fs/ess/PAS2880/users/garrigos-data/meta/metadata.tsv")
metadata

# A tibble: 22 × 3
   sample_id   time  treatment  
   <chr>       <chr> <chr>      
 1 ERR10802882 10dpi cathemerium
 2 ERR10802875 10dpi cathemerium
 3 ERR10802879 10dpi cathemerium
 4 ERR10802883 10dpi cathemerium
 5 ERR10802878 10dpi control    
 6 ERR10802884 10dpi control    
 7 ERR10802877 10dpi control    
 8 ERR10802881 10dpi control    
 9 ERR10802876 10dpi relictum   
10 ERR10802880 10dpi relictum   
# ℹ 12 more rows

# Number of variables: 3 variables
# number of rows: 22 rows

#3. In the metadata object, replace the dpi with _dpi of the time variable and cathemerium with cath of the treatment variable.

metadata |>
  mutate(
    time = sub(pattern = "dpi", replacement = "_dpi", x = time)
  )

# A tibble: 22 × 3
   sample_id   time   treatment  
   <chr>       <chr>  <chr>      
 1 ERR10802882 10_dpi cathemerium
 2 ERR10802875 10_dpi cathemerium
 3 ERR10802879 10_dpi cathemerium
 4 ERR10802883 10_dpi cathemerium
 5 ERR10802878 10_dpi control    
 6 ERR10802884 10_dpi control    
 7 ERR10802877 10_dpi control    
 8 ERR10802881 10_dpi control    
 9 ERR10802876 10_dpi relictum   
10 ERR10802880 10_dpi relictum   
# ℹ 12 more rows

metadata |>
  mutate(
    treatment = sub(pattern = "cathemerium", replacement = "cath", x = treatment)
  )

# A tibble: 22 × 3
   sample_id   time  treatment
   <chr>       <chr> <chr>    
 1 ERR10802882 10dpi cath     
 2 ERR10802875 10dpi cath     
 3 ERR10802879 10dpi cath     
 4 ERR10802883 10dpi cath     
 5 ERR10802878 10dpi control  
 6 ERR10802884 10dpi control  
 7 ERR10802877 10dpi control  
 8 ERR10802881 10dpi control  
 9 ERR10802876 10dpi relictum 
10 ERR10802880 10dpi relictum 
# ℹ 12 more rows
…
